<?xml version="1.0" encoding="UTF-8" standalone="no"?>
<svg
   xmlns:dc="http://purl.org/dc/elements/1.1/"
   xmlns:cc="http://creativecommons.org/ns#"
   xmlns:rdf="http://www.w3.org/1999/02/22-rdf-syntax-ns#"
   xmlns:svg="http://www.w3.org/2000/svg"
   xmlns="http://www.w3.org/2000/svg"
   xmlns:sodipodi="http://sodipodi.sourceforge.net/DTD/sodipodi-0.dtd"
   xmlns:inkscape="http://www.inkscape.org/namespaces/inkscape"
   width="160"
   height="200"
   viewBox="0 0 42.333332 52.916668"
   version="1.1"
   id="svg8"
   inkscape:version="1.0.2 (e86c870879, 2021-01-15)"
   sodipodi:docname="category-layout.svg"
   inkscape:export-filename="/home/pc/Pictures/category-layout.png"
   inkscape:export-xdpi="96"
   inkscape:export-ydpi="96">
  <defs
     id="defs2">
    <style
       type="text/css"
       id="current-color-scheme">
      .ColorScheme-Text {
	color:#eff0f1;
      }
      </style>
  </defs>
  <sodipodi:namedview
     id="base"
     pagecolor="#ffffff"
     bordercolor="#666666"
     borderopacity="1.0"
     inkscape:pageopacity="0.0"
     inkscape:pageshadow="2"
     inkscape:zoom="0.98994949"
     inkscape:cx="155.46995"
     inkscape:cy="92.545576"
     inkscape:document-units="px"
     inkscape:current-layer="layer1"
     inkscape:document-rotation="0"
     showgrid="false"
     inkscape:window-width="1366"
     inkscape:window-height="687"
     inkscape:window-x="0"
     inkscape:window-y="26"
     inkscape:window-maximized="1"
     inkscape:snap-global="false"
     units="px" />
  <metadata
     id="metadata5">
    <rdf:RDF>
      <cc:Work
         rdf:about="">
        <dc:format>image/svg+xml</dc:format>
        <dc:type
           rdf:resource="http://purl.org/dc/dcmitype/StillImage" />
        <dc:title></dc:title>
      </cc:Work>
    </rdf:RDF>
  </metadata>
  <g
     inkscape:label="Capa 1"
     inkscape:groupmode="layer"
     id="layer1">
    <rect
       style="opacity:0.8;fill:#000000;fill-opacity:1;stroke-width:1.21883;stroke-linejoin:bevel;paint-order:stroke markers fill"
       id="rect833"
       width="42.333332"
       height="52.916668"
       x="0"
       y="0" />
    <rect
       style="fill:none;fill-opacity:1;stroke:#ffffff;stroke-width:1.19577;stroke-linejoin:bevel;stroke-miterlimit:4;stroke-dasharray:none;stroke-opacity:1;paint-order:stroke markers fill"
       id="rect845"
       width="38.193954"
       height="47.742451"
       x="2.0696864"
       y="2.5871089" />
    <rect
       style="fill:#ffffff;fill-opacity:1;stroke:#ffffff;stroke-width:1.22129;stroke-linejoin:bevel;stroke-miterlimit:4;stroke-dasharray:none;stroke-opacity:1;paint-order:stroke markers fill"
       id="rect847"
       width="1.2859393"
       height="1.6180832"
       x="4.8831167"
       y="45.25935" />
    <rect
       style="fill:#ffffff;fill-opacity:1;stroke:none;stroke-width:4.00249;stroke-linejoin:bevel;stroke-miterlimit:4;stroke-dasharray:none;stroke-opacity:1;paint-order:stroke markers fill"
       id="rect871"
       width="5.0804243"
       height="0.87217289"
       x="7.8572183"
       y="45.623123" />
    <rect
       style="fill:#ffffff;fill-opacity:1;stroke:none;stroke-width:2.28368;stroke-linejoin:bevel;stroke-miterlimit:4;stroke-dasharray:none;stroke-opacity:1;paint-order:stroke markers fill"
       id="rect883"
       width="5.4963613"
       height="0.7130968"
       x="4.9066091"
       y="6.5954404" />
    <rect
       style="opacity:0.144969;fill:#ffffff;fill-opacity:1;stroke:#ffffff;stroke-width:1.64331;stroke-linejoin:bevel;stroke-miterlimit:4;stroke-dasharray:none;stroke-opacity:1;paint-order:stroke markers fill"
       id="rect885"
       width="18.552872"
       height="37.064236"
       x="19.112009"
       y="10.618968" />
    <rect
       style="fill:none;fill-opacity:1;stroke:#ffffff;stroke-width:0.516904;stroke-linecap:square;stroke-linejoin:miter;stroke-miterlimit:4;stroke-dasharray:none;stroke-opacity:1;paint-order:markers fill stroke"
       id="rect887"
       width="20.001593"
       height="3.9441435"
       x="18.412193"
       y="5.1075625" />
    <g
       id="g899"
       transform="matrix(0.12722968,0,0,0.1269935,35.216524,5.6640508)"
       style="fill:#ffffff;fill-opacity:1">
      <path
         style="fill:#ffffff;fill-opacity:1;stroke:none;stroke-width:1.18623"
         d="m 9,1.8137688 c -3.943038,0 -7.117387,3.174349 -7.117387,7.117387 0,3.9430392 3.174349,7.1173882 7.117387,7.1173882 1.757053,0 2.989943,-0.303176 4.228862,-1.350959 l 5.009215,5.079166 1.517218,-1.504592 -5.044613,-5.066758 c 1.047783,-1.238919 1.406706,-2.517192 1.406706,-4.2742452 0,-3.943038 -3.174349,-7.117387 -7.117388,-7.117387 z M 9,3 c 3.285867,0 5.931157,2.6452898 5.931157,5.9311558 0,3.2858672 -2.64529,5.9311572 -5.931157,5.9311572 -3.285866,0 -5.9311558,-2.64529 -5.9311558,-5.9311572 C 3.0688442,5.6452898 5.714134,3 9,3 Z"
         class="ColorScheme-Text"
         id="path848"
         sodipodi:nodetypes="sssccccsssssss" />
      <path
         style="fill:#ffffff;fill-opacity:1;stroke:none"
         d="M 9,3 C 5.6759952,3 3,5.6759952 3,9 c 0,3.324005 2.6759952,6 6,6 1.481205,0 2.830584,-0.534682 3.875,-1.417969 L 18.292969,19 19,18.292969 13.582031,12.875 C 14.465318,11.830584 15,10.481205 15,9 15,5.6759952 12.324005,3 9,3 Z m 0,1 c 2.770005,0 5,2.2299952 5,5 0,2.770005 -2.229995,5 -5,5 C 6.2299952,14 4,11.770005 4,9 4,6.2299952 6.2299952,4 9,4 Z"
         class="ColorScheme-Text"
         id="path4" />
    </g>
    <rect
       style="fill:#ffffff;fill-opacity:1;stroke:#ffffff;stroke-width:1.22129;stroke-linejoin:bevel;stroke-miterlimit:4;stroke-dasharray:none;stroke-opacity:1;paint-order:stroke markers fill"
       id="rect915"
       width="1.2859393"
       height="1.6180832"
       x="4.8831167"
       y="41.774178" />
    <rect
       style="fill:#ffffff;fill-opacity:1;stroke:none;stroke-width:4.73624;stroke-linejoin:bevel;stroke-miterlimit:4;stroke-dasharray:none;stroke-opacity:1;paint-order:stroke markers fill"
       id="rect917"
       width="7.1138582"
       height="0.87217289"
       x="7.8572183"
       y="42.137955" />
    <rect
       style="fill:#ffffff;fill-opacity:1;stroke:#ffffff;stroke-width:1.22129;stroke-linejoin:bevel;stroke-miterlimit:4;stroke-dasharray:none;stroke-opacity:1;paint-order:stroke markers fill"
       id="rect919"
       width="1.2859393"
       height="1.6180832"
       x="4.8831167"
       y="38.366875" />
    <rect
       style="fill:#ffffff;fill-opacity:1;stroke:none;stroke-width:4.19576;stroke-linejoin:bevel;stroke-miterlimit:4;stroke-dasharray:none;stroke-opacity:1;paint-order:stroke markers fill"
       id="rect921"
       width="5.5828762"
       height="0.87217289"
       x="7.8572183"
       y="38.730652" />
    <rect
       style="fill:#ffffff;fill-opacity:1;stroke:none;stroke-width:2.79211;stroke-linejoin:bevel;stroke-miterlimit:4;stroke-dasharray:none;stroke-opacity:1;paint-order:stroke markers fill"
       id="rect923"
       width="8.2162409"
       height="0.7130968"
       x="4.9066091"
       y="10.01581" />
    <rect
       style="fill:#ffffff;fill-opacity:1;stroke:none;stroke-width:2.00736;stroke-linejoin:bevel;stroke-miterlimit:4;stroke-dasharray:none;stroke-opacity:1;paint-order:stroke markers fill"
       id="rect925"
       width="4.2467303"
       height="0.7130968"
       x="4.9066091"
       y="13.285783" />
    <rect
       style="fill:#ffffff;fill-opacity:1;stroke:none;stroke-width:2.63167;stroke-linejoin:bevel;stroke-miterlimit:4;stroke-dasharray:none;stroke-opacity:1;paint-order:stroke markers fill"
       id="rect927"
       width="7.2991228"
       height="0.7130968"
       x="4.9066091"
       y="16.819834" />
    <rect
       style="fill:#ffffff;fill-opacity:1;stroke:none;stroke-width:3.21211;stroke-linejoin:bevel;stroke-miterlimit:4;stroke-dasharray:none;stroke-opacity:1;paint-order:stroke markers fill"
       id="rect929"
       width="10.873946"
       height="0.7130968"
       x="4.9066091"
       y="20.264084" />
    <rect
       style="fill:#ffffff;fill-opacity:1;stroke:none;stroke-width:2.41186;stroke-linejoin:bevel;stroke-miterlimit:4;stroke-dasharray:none;stroke-opacity:1;paint-order:stroke markers fill"
       id="rect931"
       width="6.1306782"
       height="0.7130968"
       x="4.9066091"
       y="23.746944" />
    <rect
       style="fill:#ffffff;fill-opacity:1;stroke:none;stroke-width:2.79239;stroke-linejoin:bevel;stroke-miterlimit:4;stroke-dasharray:none;stroke-opacity:1;paint-order:stroke markers fill"
       id="rect933"
       width="8.2179079"
       height="0.7130968"
       x="4.9066091"
       y="27.213715" />
  </g>
</svg>
